BOOL001,C\PLC\R\CPU\global_variables.vbb,0,,4,0,,,BOOL,NSQX0.0,,VAR_GLOBAL,NOT USED,,
BOOL101,C\PLC\R\CPU\global_variables.vbb,0,,5,0,,,BOOL,NSIX0.0,,VAR_GLOBAL,NOT USED,,
C01_SL1_SafeBOOL001,POE\Main\Code.GB,1,IN,0,47,Read,,SAFEBOOL,SIX56.0,,VAR_GLOBAL,GLOBAL,,
SL2_C01_SafeBOOL001,POE\Main\Code.GB,1,OUT,1,0,Write,,SAFEBOOL,SQX16.0,,VAR_GLOBAL,GLOBAL,,
